# Type in the codes/numbers of the products separated by commas
# Input the products of each row of the vending machine in a different line,
# starting from the top left corner
# If a product is not available or there is an empty place set its price to 0
A1,A2,A3,A4
B5,B6,B7,B8,B9,B10
C11,C12,C13,C14,C15,C16,C17,C18
D19,D20